Capitulo 3 Analisis Exploratorio | Examen Programacion r
…
3.3 Lectura de conjunto de datos

AtenUrgencia <- read_delim("AtencionesUrgencia2023.csv", 
                           delim = ";", escape_double = FALSE, trim_ws = TRUE,locale = locale(encoding = "Latin1"))
AtenUrgencia

## # A tibble: 8,899,080 × 21
##    IdEstablecimiento NEstablecimiento  IdCausa GlosaCausa Total Menores_1 De_1_a_4 De_5_a_14 De_15_a_64
##    <chr>             <chr>               <dbl> <chr>      <dbl>     <dbl>    <dbl>     <dbl>      <dbl>
##  1 07-961            SUR HIJUELAS           17 Otras cau…     0         0        0         0          0
##  2 16-959            SUR Río Claro          17 Otras cau…     0         0        0         0          0
##  3 15-953            SUR Olivar             17 Otras cau…     0         0        0         0          0
##  4 03-932            SUR Socaire            17 Otras cau…     0         0        0         0          0
##  5 14-831            SAPU La Florida        17 Otras cau…     0         0        0         0          0
##  6 05-805            SAR Tierras Blan…      17 Otras cau…     1         0        0         0          1
##  7 10-891            SAPU Marcela Jaq…      17 Otras cau…     0         0        0         0          0
##  8 05-819            SAR Raúl Silva H…      17 Otras cau…     0         0        0         0          0
##  9 19-101            Hospital de Tomé       17 Otras cau…     0         0        0         0          0
## 10 11-809            SAPU Dra. Ana Ma…      17 Otras cau…     0         0        0         0          0
## # ℹ 8,899,070 more rows
## # ℹ 12 more variables: De_65_y_mas <dbl>, fecha <chr>, semana <dbl>, GLOSATIPOESTABLECIMIENTO <chr>,
## #   GLOSATIPOATENCION <chr>, GlosaTipoCampana <chr>, CodigoRegion <dbl>, NombreRegion <chr>,
## #   CodigoDependencia <dbl>, NombreDependencia <chr>, CodigoComuna <dbl>, NombreComuna <chr>
…
